<?xml version="1.0" encoding="utf-8"?>
<!-- Generator: Adobe Illustrator 20.1.0, SVG Export Plug-In . SVG Version: 6.00 Build 0)  -->
<svg version="1.1" id="Слой_1" xmlns="http://www.w3.org/2000/svg" xmlns:xlink="http://www.w3.org/1999/xlink" x="0px" y="0px"
	 viewBox="0 0 734.2 583" style="enable-background:new 0 0 734.2 583;" xml:space="preserve">
<style type="text/css">
	.st0{clip-path:url(#SVGID_2_);}
	.st1{opacity:0.55;clip-path:url(#SVGID_4_);}
	.st2{clip-path:url(#SVGID_6_);fill:#FFEEFF;}
	.st3{clip-path:url(#SVGID_4_);}
	.st4{clip-path:url(#SVGID_8_);fill:url(#SVGID_9_);}
	.st5{clip-path:url(#SVGID_8_);fill:url(#SVGID_10_);}
	.st6{clip-path:url(#SVGID_8_);fill:url(#SVGID_11_);}
	.st7{clip-path:url(#SVGID_8_);fill:url(#SVGID_12_);}
	.st8{clip-path:url(#SVGID_8_);fill:url(#SVGID_13_);}
	.st9{clip-path:url(#SVGID_8_);fill:url(#SVGID_14_);}
	.st10{clip-path:url(#SVGID_8_);fill:url(#SVGID_15_);}
	.st11{clip-path:url(#SVGID_8_);fill:url(#SVGID_16_);}
	.st12{clip-path:url(#SVGID_8_);fill:url(#SVGID_17_);}
	.st13{clip-path:url(#SVGID_8_);fill:url(#SVGID_18_);}
	.st14{clip-path:url(#SVGID_8_);fill:url(#SVGID_19_);}
	.st15{clip-path:url(#SVGID_8_);fill:url(#SVGID_20_);}
	.st16{clip-path:url(#SVGID_8_);fill:url(#SVGID_21_);}
	.st17{clip-path:url(#SVGID_8_);fill:url(#SVGID_22_);}
	.st18{clip-path:url(#SVGID_8_);fill:url(#SVGID_23_);}
	.st19{clip-path:url(#SVGID_8_);fill:url(#SVGID_24_);}
	.st20{clip-path:url(#SVGID_8_);fill:url(#SVGID_25_);}
	.st21{clip-path:url(#SVGID_8_);fill:url(#SVGID_26_);}
	.st22{clip-path:url(#SVGID_8_);fill:url(#SVGID_27_);}
	.st23{clip-path:url(#SVGID_8_);fill:url(#SVGID_28_);}
	.st24{clip-path:url(#SVGID_8_);fill:url(#SVGID_29_);}
	.st25{clip-path:url(#SVGID_8_);fill:url(#SVGID_30_);}
	.st26{clip-path:url(#SVGID_8_);fill:url(#SVGID_31_);}
	.st27{clip-path:url(#SVGID_8_);fill:url(#SVGID_32_);}
	.st28{clip-path:url(#SVGID_8_);fill:url(#SVGID_33_);}
	.st29{opacity:0.6;clip-path:url(#SVGID_8_);}
	.st30{clip-path:url(#SVGID_35_);fill:url(#SVGID_36_);}
	.st31{opacity:0.4;clip-path:url(#SVGID_8_);}
	.st32{clip-path:url(#SVGID_38_);fill:url(#SVGID_39_);}
	.st33{opacity:0.41;clip-path:url(#SVGID_8_);}
	.st34{clip-path:url(#SVGID_41_);fill:url(#SVGID_42_);}
	.st35{clip-path:url(#SVGID_44_);fill:url(#SVGID_45_);}
	.st36{clip-path:url(#SVGID_47_);fill:url(#SVGID_48_);}
	.st37{clip-path:url(#SVGID_50_);fill:url(#SVGID_51_);}
	.st38{clip-path:url(#SVGID_53_);fill:url(#SVGID_54_);}
	.st39{clip-path:url(#SVGID_8_);fill:url(#SVGID_55_);}
	.st40{clip-path:url(#SVGID_8_);fill:url(#SVGID_56_);}
	.st41{clip-path:url(#SVGID_58_);fill:url(#SVGID_59_);}
	.st42{clip-path:url(#SVGID_61_);fill:url(#SVGID_62_);}
	.st43{clip-path:url(#SVGID_64_);fill:url(#SVGID_65_);}
	.st44{clip-path:url(#SVGID_67_);fill:url(#SVGID_68_);}
	.st45{clip-path:url(#SVGID_70_);fill:url(#SVGID_71_);}
	.st46{opacity:0.39;clip-path:url(#SVGID_8_);}
	.st47{clip-path:url(#SVGID_73_);fill:url(#SVGID_74_);}
	.st48{clip-path:url(#SVGID_8_);fill:url(#SVGID_75_);}
	.st49{clip-path:url(#SVGID_8_);fill:url(#SVGID_76_);}
	.st50{clip-path:url(#SVGID_8_);fill:url(#SVGID_77_);}
	.st51{clip-path:url(#SVGID_8_);fill:url(#SVGID_78_);}
	.st52{clip-path:url(#SVGID_8_);fill:url(#SVGID_79_);}
	.st53{clip-path:url(#SVGID_8_);fill:url(#SVGID_80_);}
	.st54{clip-path:url(#SVGID_8_);fill:url(#SVGID_81_);}
	.st55{clip-path:url(#SVGID_8_);fill:url(#SVGID_82_);}
	.st56{clip-path:url(#SVGID_8_);fill:url(#SVGID_83_);}
	.st57{clip-path:url(#SVGID_8_);fill:url(#SVGID_84_);}
	.st58{clip-path:url(#SVGID_8_);fill:url(#SVGID_85_);}
	.st59{clip-path:url(#SVGID_8_);fill:url(#SVGID_86_);}
	.st60{clip-path:url(#SVGID_8_);fill:url(#SVGID_87_);}
	.st61{clip-path:url(#SVGID_8_);fill:url(#SVGID_88_);}
	.st62{clip-path:url(#SVGID_8_);fill:url(#SVGID_89_);}
	.st63{clip-path:url(#SVGID_8_);fill:url(#SVGID_90_);}
	.st64{clip-path:url(#SVGID_8_);fill:url(#SVGID_91_);}
	.st65{clip-path:url(#SVGID_8_);fill:url(#SVGID_92_);}
	.st66{clip-path:url(#SVGID_8_);fill:url(#SVGID_93_);}
	.st67{clip-path:url(#SVGID_4_);fill:#FFEEFF;}
	.st68{clip-path:url(#SVGID_4_);fill:#E7C4E8;}
</style>
<g>
	<defs>
		<rect id="SVGID_1_" width="734.2" height="583"/>
	</defs>
	<clipPath id="SVGID_2_">
		<use xlink:href="#SVGID_1_"  style="overflow:visible;"/>
	</clipPath>
	<g class="st0">
		<defs>
			<rect id="SVGID_3_" width="734.2" height="583"/>
		</defs>
		<clipPath id="SVGID_4_">
			<use xlink:href="#SVGID_3_"  style="overflow:visible;"/>
		</clipPath>
		<g class="st1">
			<g>
				<defs>
					<rect id="SVGID_5_" x="69" width="575.6" height="478.3"/>
				</defs>
				<clipPath id="SVGID_6_">
					<use xlink:href="#SVGID_5_"  style="overflow:visible;"/>
				</clipPath>
				<path class="st2" d="M369.8,285.4c0,0.5-0.4,0.9-0.9,0.9c-0.5,0-0.9-0.4-0.9-0.9c0-0.5,0.4-0.9,0.9-0.9
					C369.4,284.5,369.8,284.9,369.8,285.4"/>
				<path class="st2" d="M333.6,286.9c0,0.5-0.4,0.9-0.9,0.9c-0.5,0-0.9-0.4-0.9-0.9c0-0.5,0.4-0.9,0.9-0.9
					C333.2,286,333.6,286.4,333.6,286.9"/>
				<path class="st2" d="M286.7,303.4c0,0.7-0.6,1.3-1.3,1.3c-0.7,0-1.3-0.6-1.3-1.3c0-0.7,0.6-1.3,1.3-1.3
					C286.1,302.1,286.7,302.7,286.7,303.4"/>
				<path class="st2" d="M286.8,315.3c0,0.8-0.7,1.5-1.5,1.5c-0.8,0-1.5-0.7-1.5-1.5c0-0.8,0.7-1.5,1.5-1.5
					C286.2,313.8,286.8,314.5,286.8,315.3"/>
				<path class="st2" d="M316.1,325.9c0,0.5-0.4,0.9-0.9,0.9c-0.5,0-0.9-0.4-0.9-0.9c0-0.5,0.4-0.9,0.9-0.9
					C315.7,325,316.1,325.4,316.1,325.9"/>
				<path class="st2" d="M382.7,347.1c0,0.5-0.4,0.9-0.9,0.9c-0.5,0-0.9-0.4-0.9-0.9c0-0.5,0.4-0.9,0.9-0.9
					C382.3,346.2,382.7,346.6,382.7,347.1"/>
				<path class="st2" d="M425.7,376.3c0,0.5-0.4,0.9-0.9,0.9c-0.5,0-0.9-0.4-0.9-0.9c0-0.5,0.4-0.9,0.9-0.9
					C425.2,375.4,425.7,375.8,425.7,376.3"/>
				<path class="st2" d="M442.7,418.7c0,0.5-0.4,0.9-0.9,0.9c-0.5,0-0.9-0.4-0.9-0.9c0-0.5,0.4-0.9,0.9-0.9
					C442.3,417.8,442.7,418.2,442.7,418.7"/>
				<path class="st2" d="M376.4,437.2c0,0.5-0.4,0.9-0.9,0.9c-0.5,0-0.9-0.4-0.9-0.9c0-0.5,0.4-0.9,0.9-0.9
					C376,436.2,376.4,436.7,376.4,437.2"/>
				<path class="st2" d="M287.2,438.4c0,0.5-0.4,0.9-0.9,0.9c-0.5,0-0.9-0.4-0.9-0.9c0-0.5,0.4-0.9,0.9-0.9
					C286.8,437.5,287.2,437.9,287.2,438.4"/>
				<path class="st2" d="M279.7,441.5c0,0.5-0.4,0.9-0.9,0.9c-0.5,0-0.9-0.4-0.9-0.9c0-0.5,0.4-0.9,0.9-0.9
					C279.3,440.6,279.7,441,279.7,441.5"/>
				<path class="st2" d="M292.3,429.5c0,0.5-0.4,0.9-0.9,0.9c-0.5,0-0.9-0.4-0.9-0.9c0-0.5,0.4-0.9,0.9-0.9
					C291.9,428.6,292.3,429,292.3,429.5"/>
				<path class="st2" d="M356.4,371.5c0,0.8-0.6,1.4-1.4,1.4c-0.8,0-1.4-0.6-1.4-1.4s0.6-1.4,1.4-1.4
					C355.8,370.1,356.4,370.7,356.4,371.5"/>
				<path class="st2" d="M402,387.7c0,0.5-0.4,0.9-0.9,0.9c-0.5,0-0.9-0.4-0.9-0.9c0-0.5,0.4-0.9,0.9-0.9
					C401.6,386.8,402,387.2,402,387.7"/>
				<path class="st2" d="M490.9,387.2c0,1.2-1,2.1-2.1,2.1s-2.1-0.9-2.1-2.1c0-1.2,1-2.1,2.1-2.1S490.9,386.1,490.9,387.2"/>
				<path class="st2" d="M575.3,377.6c0,0.5-0.4,0.9-0.9,0.9c-0.5,0-0.9-0.4-0.9-0.9c0-0.5,0.4-0.9,0.9-0.9
					C574.9,376.7,575.3,377.1,575.3,377.6"/>
				<path class="st2" d="M641.4,305.6c0,0.5-0.4,0.9-0.9,0.9c-0.5,0-0.9-0.4-0.9-0.9c0-0.5,0.4-0.9,0.9-0.9
					C641,304.7,641.4,305.1,641.4,305.6"/>
				<path class="st2" d="M611.9,288.2c0,0.5-0.4,0.9-0.9,0.9c-0.5,0-0.9-0.4-0.9-0.9c0-0.5,0.4-0.9,0.9-0.9
					C611.5,287.3,611.9,287.7,611.9,288.2"/>
				<path class="st2" d="M612.2,256c0,0.5-0.4,0.9-0.9,0.9c-0.5,0-0.9-0.4-0.9-0.9c0-0.5,0.4-0.9,0.9-0.9
					C611.8,255,612.2,255.5,612.2,256"/>
				<path class="st2" d="M568.2,263.7c0,1-0.8,1.9-1.9,1.9c-1,0-1.9-0.8-1.9-1.9c0-1,0.8-1.9,1.9-1.9
					C567.4,261.8,568.2,262.7,568.2,263.7"/>
				<path class="st2" d="M569.1,272.4c0,1.5-1.2,2.7-2.7,2.7s-2.7-1.2-2.7-2.7c0-1.5,1.2-2.7,2.7-2.7S569.1,270.9,569.1,272.4"/>
				<path class="st2" d="M534.7,270.2c0,0.5-0.4,0.9-0.9,0.9c-0.5,0-0.9-0.4-0.9-0.9c0-0.5,0.4-0.9,0.9-0.9
					C534.3,269.3,534.7,269.7,534.7,270.2"/>
				<path class="st2" d="M510.5,228c0,0.5-0.4,0.9-0.9,0.9c-0.5,0-0.9-0.4-0.9-0.9c0-0.5,0.4-0.9,0.9-0.9
					C510.1,227,510.5,227.4,510.5,228"/>
				<path class="st2" d="M471.8,190.9c0,0.5-0.4,0.9-0.9,0.9c-0.5,0-0.9-0.4-0.9-0.9c0-0.5,0.4-0.9,0.9-0.9
					C471.4,190,471.8,190.4,471.8,190.9"/>
				<path class="st2" d="M429.3,176.3c0,0.5-0.4,0.9-0.9,0.9c-0.5,0-0.9-0.4-0.9-0.9c0-0.5,0.4-0.9,0.9-0.9
					C428.9,175.4,429.3,175.8,429.3,176.3"/>
				<path class="st2" d="M409.7,163.8c0,0.5-0.4,0.9-0.9,0.9c-0.5,0-0.9-0.4-0.9-0.9c0-0.5,0.4-0.9,0.9-0.9
					C409.3,162.9,409.7,163.3,409.7,163.8"/>
				<path class="st2" d="M282.3,204c0,0.5-0.4,0.9-0.9,0.9c-0.5,0-0.9-0.4-0.9-0.9c0-0.5,0.4-0.9,0.9-0.9
					C281.8,203.1,282.3,203.5,282.3,204"/>
				<path class="st2" d="M232.7,189.3c0,0.5-0.4,0.9-0.9,0.9c-0.5,0-0.9-0.4-0.9-0.9c0-0.5,0.4-0.9,0.9-0.9
					C232.3,188.4,232.7,188.8,232.7,189.3"/>
				<path class="st2" d="M304,120.8c0,0.5-0.4,0.9-0.9,0.9c-0.5,0-0.9-0.4-0.9-0.9c0-0.5,0.4-0.9,0.9-0.9
					C303.6,119.8,304,120.3,304,120.8"/>
				<path class="st2" d="M409.9,105.8c0,0.5-0.4,0.9-0.9,0.9c-0.5,0-0.9-0.4-0.9-0.9c0-0.5,0.4-0.9,0.9-0.9
					C409.5,104.9,409.9,105.3,409.9,105.8"/>
				<path class="st2" d="M461.5,100c0,0.5-0.4,0.9-0.9,0.9c-0.5,0-0.9-0.4-0.9-0.9c0-0.5,0.4-0.9,0.9-0.9
					C461.1,99.1,461.5,99.5,461.5,100"/>
				<path class="st2" d="M485.2,95.7c0,0.5-0.4,0.9-0.9,0.9c-0.5,0-0.9-0.4-0.9-0.9c0-0.5,0.4-0.9,0.9-0.9
					C484.8,94.8,485.2,95.2,485.2,95.7"/>
				<path class="st2" d="M583,55.9c0,0.5-0.4,0.9-0.9,0.9c-0.5,0-0.9-0.4-0.9-0.9c0-0.5,0.4-0.9,0.9-0.9
					C582.6,54.9,583,55.3,583,55.9"/>
				<path class="st2" d="M570.1,91.6c0,0.5-0.4,0.9-0.9,0.9c-0.5,0-0.9-0.4-0.9-0.9c0-0.5,0.4-0.9,0.9-0.9
					C569.7,90.7,570.1,91.1,570.1,91.6"/>
				<path class="st2" d="M475.3,136.8c0,0.5-0.4,0.9-0.9,0.9c-0.5,0-0.9-0.4-0.9-0.9c0-0.5,0.4-0.9,0.9-0.9
					C474.9,135.8,475.3,136.3,475.3,136.8"/>
				<path class="st2" d="M321.5,174.2c0,0.5-0.4,0.9-0.9,0.9c-0.5,0-0.9-0.4-0.9-0.9c0-0.5,0.4-0.9,0.9-0.9
					C321.1,173.3,321.5,173.7,321.5,174.2"/>
				<path class="st2" d="M333.9,209.6c0,0.5-0.4,0.9-0.9,0.9c-0.5,0-0.9-0.4-0.9-0.9c0-0.5,0.4-0.9,0.9-0.9
					C333.5,208.7,333.9,209.1,333.9,209.6"/>
				<path class="st2" d="M308.9,231.7c0,1.3-1,2.3-2.3,2.3c-1.3,0-2.3-1-2.3-2.3c0-1.3,1-2.3,2.3-2.3
					C307.9,229.4,308.9,230.4,308.9,231.7"/>
				<path class="st2" d="M233.3,256.5c0,0.5-0.4,0.9-0.9,0.9c-0.5,0-0.9-0.4-0.9-0.9c0-0.5,0.4-0.9,0.9-0.9
					C232.9,255.6,233.3,256,233.3,256.5"/>
				<path class="st2" d="M151.2,264.2c0,0.5-0.4,0.9-0.9,0.9c-0.5,0-0.9-0.4-0.9-0.9c0-0.5,0.4-0.9,0.9-0.9
					C150.8,263.2,151.2,263.6,151.2,264.2"/>
				<path class="st2" d="M115.8,305.4c0,0.9-0.7,1.6-1.6,1.6c-0.9,0-1.6-0.7-1.6-1.6c0-0.9,0.7-1.6,1.6-1.6
					C115.1,303.8,115.8,304.5,115.8,305.4"/>
				<path class="st2" d="M114.5,321.6c0,1-0.8,1.8-1.8,1.8c-1,0-1.8-0.8-1.8-1.8c0-1,0.8-1.8,1.8-1.8
					C113.7,319.8,114.5,320.6,114.5,321.6"/>
				<path class="st2" d="M88.3,347.3c0,0.5-0.4,0.9-0.9,0.9s-0.9-0.4-0.9-0.9c0-0.5,0.4-0.9,0.9-0.9S88.3,346.8,88.3,347.3"/>
				<path class="st2" d="M70.9,391.7c0,0.5-0.4,0.9-0.9,0.9c-0.5,0-0.9-0.4-0.9-0.9c0-0.5,0.4-0.9,0.9-0.9
					C70.5,390.8,70.9,391.2,70.9,391.7"/>
				<path class="st2" d="M80.9,376.2c0,0.5-0.4,0.9-0.9,0.9c-0.5,0-0.9-0.4-0.9-0.9c0-0.5,0.4-0.9,0.9-0.9
					C80.5,375.3,80.9,375.7,80.9,376.2"/>
				<path class="st2" d="M75.5,384.1c0,0.5-0.4,0.9-0.9,0.9s-0.9-0.4-0.9-0.9c0-0.5,0.4-0.9,0.9-0.9S75.5,383.6,75.5,384.1"/>
				<path class="st2" d="M98.4,387.6c0,0.5-0.4,0.9-0.9,0.9c-0.5,0-0.9-0.4-0.9-0.9c0-0.5,0.4-0.9,0.9-0.9
					C98,386.7,98.4,387.1,98.4,387.6"/>
				<path class="st2" d="M89.2,365.6c0,0.5-0.4,0.9-0.9,0.9c-0.5,0-0.9-0.4-0.9-0.9c0-0.5,0.4-0.9,0.9-0.9
					C88.8,364.7,89.2,365.1,89.2,365.6"/>
				<path class="st2" d="M83,361.8c0,0.5-0.4,0.9-0.9,0.9c-0.5,0-0.9-0.4-0.9-0.9c0-0.5,0.4-0.9,0.9-0.9
					C82.6,360.9,83,361.3,83,361.8"/>
				<path class="st2" d="M180,441.2c0,0.5-0.4,0.9-0.9,0.9c-0.5,0-0.9-0.4-0.9-0.9c0-0.5,0.4-0.9,0.9-0.9
					C179.6,440.2,180,440.7,180,441.2"/>
				<path class="st2" d="M215.9,456.8c0,0.8-0.6,1.4-1.4,1.4c-0.8,0-1.4-0.6-1.4-1.4c0-0.8,0.6-1.4,1.4-1.4
					C215.2,455.3,215.9,456,215.9,456.8"/>
				<path class="st2" d="M233.2,464.2c0,0.6-0.5,1.2-1.2,1.2c-0.6,0-1.2-0.5-1.2-1.2c0-0.7,0.5-1.2,1.2-1.2
					C232.7,463,233.2,463.5,233.2,464.2"/>
				<path class="st2" d="M231.5,425.2c0,1.4-1.1,2.6-2.6,2.6s-2.6-1.1-2.6-2.6s1.1-2.6,2.6-2.6S231.5,423.8,231.5,425.2"/>
				<path class="st2" d="M224,402.4c0,0.5-0.4,0.9-0.9,0.9c-0.5,0-0.9-0.4-0.9-0.9c0-0.5,0.4-0.9,0.9-0.9
					C223.6,401.5,224,401.9,224,402.4"/>
				<path class="st2" d="M248.5,415.3c0,1-0.8,1.7-1.7,1.7s-1.7-0.8-1.7-1.7c0-1,0.8-1.7,1.7-1.7S248.5,414.3,248.5,415.3"/>
				<path class="st2" d="M306.5,453c0,0.5-0.4,0.9-0.9,0.9c-0.5,0-0.9-0.4-0.9-0.9c0-0.5,0.4-0.9,0.9-0.9
					C306,452,306.5,452.5,306.5,453"/>
				<path class="st2" d="M210.9,461.8c0,0.5-0.4,0.9-0.9,0.9c-0.5,0-0.9-0.4-0.9-0.9c0-0.5,0.4-0.9,0.9-0.9
					C210.5,460.9,210.9,461.3,210.9,461.8"/>
				<path class="st2" d="M157.5,473.8c0,0.7-0.6,1.3-1.3,1.3c-0.7,0-1.3-0.6-1.3-1.3c0-0.7,0.6-1.3,1.3-1.3
					C156.9,472.5,157.5,473,157.5,473.8"/>
				<path class="st2" d="M142.8,465.4c0,0.5-0.4,0.9-0.9,0.9c-0.5,0-0.9-0.4-0.9-0.9c0-0.5,0.4-0.9,0.9-0.9
					C142.3,464.5,142.8,464.9,142.8,465.4"/>
				<path class="st2" d="M122.3,470.8c0,1-0.8,1.8-1.8,1.8c-1,0-1.8-0.8-1.8-1.8c0-1,0.8-1.8,1.8-1.8
					C121.5,468.9,122.3,469.8,122.3,470.8"/>
				<path class="st2" d="M267.1,464.2c0,0.5-0.4,0.9-0.9,0.9c-0.5,0-0.9-0.4-0.9-0.9s0.4-0.9,0.9-0.9
					C266.7,463.3,267.1,463.7,267.1,464.2"/>
				<path class="st2" d="M301.7,459.1c0,0.5-0.4,0.9-0.9,0.9c-0.5,0-0.9-0.4-0.9-0.9s0.4-0.9,0.9-0.9
					C301.3,458.2,301.7,458.6,301.7,459.1"/>
				<path class="st2" d="M350.5,475.9c0,0.5-0.4,0.9-0.9,0.9c-0.5,0-0.9-0.4-0.9-0.9c0-0.5,0.4-0.9,0.9-0.9
					C350,475,350.5,475.4,350.5,475.9"/>
				<path class="st2" d="M396.9,448.8c0,0.5-0.4,0.9-0.9,0.9c-0.5,0-0.9-0.4-0.9-0.9c0-0.5,0.4-0.9,0.9-0.9
					C396.4,447.9,396.9,448.3,396.9,448.8"/>
				<path class="st2" d="M395.6,464.6c0,0.5-0.4,0.9-0.9,0.9c-0.5,0-0.9-0.4-0.9-0.9s0.4-0.9,0.9-0.9
					C395.2,463.6,395.6,464,395.6,464.6"/>
				<path class="st2" d="M380,445.9c0,0.5-0.4,0.9-0.9,0.9c-0.5,0-0.9-0.4-0.9-0.9s0.4-0.9,0.9-0.9C379.6,445,380,445.4,380,445.9"
					/>
				<path class="st2" d="M382.2,457.8c0,0.5-0.4,0.9-0.9,0.9c-0.5,0-0.9-0.4-0.9-0.9c0-0.5,0.4-0.9,0.9-0.9
					C381.8,456.9,382.2,457.3,382.2,457.8"/>
				<path class="st2" d="M420.9,459.4c0,0.5-0.4,0.9-0.9,0.9c-0.5,0-0.9-0.4-0.9-0.9c0-0.5,0.4-0.9,0.9-0.9
					C420.5,458.5,420.9,458.9,420.9,459.4"/>
				<path class="st2" d="M554.3,476.4c0,0.5-0.4,0.9-0.9,0.9c-0.5,0-0.9-0.4-0.9-0.9c0-0.5,0.4-0.9,0.9-0.9
					C553.9,475.5,554.3,475.9,554.3,476.4"/>
				<path class="st2" d="M574.3,475.3c0,0.5-0.4,0.9-0.9,0.9c-0.5,0-0.9-0.4-0.9-0.9c0-0.5,0.4-0.9,0.9-0.9
					C573.9,474.4,574.3,474.8,574.3,475.3"/>
				<path class="st2" d="M611,477.4c0,0.5-0.4,0.9-0.9,0.9c-0.5,0-0.9-0.4-0.9-0.9c0-0.5,0.4-0.9,0.9-0.9
					C610.6,476.5,611,476.9,611,477.4"/>
				<path class="st2" d="M555.6,445.3c0,0.5-0.4,0.9-0.9,0.9c-0.5,0-0.9-0.4-0.9-0.9c0-0.5,0.4-0.9,0.9-0.9
					C555.2,444.4,555.6,444.8,555.6,445.3"/>
				<path class="st2" d="M476.6,299.7c0,0.5-0.4,0.9-0.9,0.9c-0.5,0-0.9-0.4-0.9-0.9c0-0.5,0.4-0.9,0.9-0.9
					C476.2,298.7,476.6,299.2,476.6,299.7"/>
				<path class="st2" d="M454.7,322.2c0,0.5-0.4,0.9-0.9,0.9c-0.5,0-0.9-0.4-0.9-0.9c0-0.5,0.4-0.9,0.9-0.9
					C454.3,321.2,454.7,321.7,454.7,322.2"/>
				<path class="st2" d="M446.4,264.8c0,0.5-0.4,0.9-0.9,0.9c-0.5,0-0.9-0.4-0.9-0.9c0-0.5,0.4-0.9,0.9-0.9
					C446,263.9,446.4,264.3,446.4,264.8"/>
				<path class="st2" d="M450.1,251.4c0,0.5-0.4,0.9-0.9,0.9c-0.5,0-0.9-0.4-0.9-0.9c0-0.5,0.4-0.9,0.9-0.9
					C449.7,250.5,450.1,250.9,450.1,251.4"/>
				<path class="st2" d="M431.2,248.3c0,0.5-0.4,0.9-0.9,0.9c-0.5,0-0.9-0.4-0.9-0.9c0-0.5,0.4-0.9,0.9-0.9
					C430.8,247.4,431.2,247.8,431.2,248.3"/>
				<path class="st2" d="M537.2,150.1c0,1.7-1.4,3.1-3.1,3.1c-1.7,0-3.1-1.4-3.1-3.1c0-1.7,1.4-3.1,3.1-3.1
					C535.8,147,537.2,148.4,537.2,150.1"/>
				<path class="st2" d="M532.1,126.2c0,0.6-0.5,1.1-1.1,1.1s-1.1-0.5-1.1-1.1c0-0.6,0.5-1.1,1.1-1.1S532.1,125.6,532.1,126.2"/>
				<path class="st2" d="M543,127.8c0,0.5-0.4,1-1,1c-0.5,0-1-0.4-1-1c0-0.5,0.4-1,1-1C542.5,126.8,543,127.2,543,127.8"/>
				<path class="st2" d="M568,119.4c0,0.6-0.5,1.1-1.1,1.1c-0.6,0-1.1-0.5-1.1-1.1c0-0.6,0.5-1.1,1.1-1.1
					C567.5,118.2,568,118.7,568,119.4"/>
				<path class="st2" d="M566.1,112.8c0,0.5-0.4,0.9-0.9,0.9c-0.5,0-0.9-0.4-0.9-0.9c0-0.5,0.4-0.9,0.9-0.9
					C565.7,111.8,566.1,112.2,566.1,112.8"/>
				<path class="st2" d="M558.2,109c0,0.5-0.4,0.9-0.9,0.9c-0.5,0-0.9-0.4-0.9-0.9c0-0.5,0.4-0.9,0.9-0.9
					C557.8,108.1,558.2,108.5,558.2,109"/>
				<path class="st2" d="M557.4,113.5c0,0.5-0.4,0.9-0.9,0.9c-0.5,0-0.9-0.4-0.9-0.9c0-0.5,0.4-0.9,0.9-0.9
					C557,112.6,557.4,113,557.4,113.5"/>
				<path class="st2" d="M572.6,169c0,0.5-0.4,0.9-0.9,0.9c-0.5,0-0.9-0.4-0.9-0.9c0-0.5,0.4-0.9,0.9-0.9
					C572.2,168.1,572.6,168.5,572.6,169"/>
				<path class="st2" d="M590.9,197.6c0,0.5-0.4,0.9-0.9,0.9c-0.5,0-0.9-0.4-0.9-0.9c0-0.5,0.4-0.9,0.9-0.9
					C590.5,196.7,590.9,197.1,590.9,197.6"/>
				<path class="st2" d="M644.6,195c0,0.5-0.4,0.9-0.9,0.9c-0.5,0-0.9-0.4-0.9-0.9c0-0.5,0.4-0.9,0.9-0.9
					C644.2,194.1,644.6,194.5,644.6,195"/>
				<path class="st2" d="M305.6,134c0,0.5-0.4,0.9-0.9,0.9c-0.5,0-0.9-0.4-0.9-0.9c0-0.5,0.4-0.9,0.9-0.9
					C305.2,133.1,305.6,133.5,305.6,134"/>
				<path class="st2" d="M234.1,98.8c0,1.5-1.2,2.7-2.7,2.7c-1.5,0-2.7-1.2-2.7-2.7c0-1.5,1.2-2.7,2.7-2.7
					C232.9,96.1,234.1,97.3,234.1,98.8"/>
				<path class="st2" d="M211.3,82.7c0,0.8-0.6,1.4-1.4,1.4c-0.8,0-1.4-0.6-1.4-1.4c0-0.8,0.6-1.4,1.4-1.4
					C210.7,81.3,211.3,82,211.3,82.7"/>
				<path class="st2" d="M180.8,91.7c0,0.5-0.4,0.9-0.9,0.9c-0.5,0-0.9-0.4-0.9-0.9c0-0.5,0.4-0.9,0.9-0.9
					C180.3,90.8,180.8,91.2,180.8,91.7"/>
				<path class="st2" d="M167.3,67.2c0,0.5-0.4,0.9-0.9,0.9c-0.5,0-0.9-0.4-0.9-0.9c0-0.5,0.4-0.9,0.9-0.9
					C166.9,66.3,167.3,66.7,167.3,67.2"/>
				<path class="st2" d="M188.8,52.6c0,0.5-0.4,0.9-0.9,0.9c-0.5,0-0.9-0.4-0.9-0.9c0-0.5,0.4-0.9,0.9-0.9
					C188.4,51.7,188.8,52.1,188.8,52.6"/>
				<path class="st2" d="M148.6,51c0,0.5-0.4,0.9-0.9,0.9c-0.5,0-0.9-0.4-0.9-0.9c0-0.5,0.4-0.9,0.9-0.9
					C148.2,50.1,148.6,50.5,148.6,51"/>
				<path class="st2" d="M144.6,30c0,0.5-0.4,0.9-0.9,0.9c-0.5,0-0.9-0.4-0.9-0.9c0-0.5,0.4-0.9,0.9-0.9
					C144.2,29.1,144.6,29.5,144.6,30"/>
				<path class="st2" d="M143.1,55.1c0,0.5-0.4,0.9-0.9,0.9c-0.5,0-0.9-0.4-0.9-0.9c0-0.5,0.4-0.9,0.9-0.9
					C142.7,54.1,143.1,54.6,143.1,55.1"/>
				<path class="st2" d="M174.7,141.9c0,0.5-0.4,0.9-0.9,0.9c-0.5,0-0.9-0.4-0.9-0.9c0-0.5,0.4-0.9,0.9-0.9
					C174.3,141,174.7,141.4,174.7,141.9"/>
				<path class="st2" d="M155.7,127.1c0,0.5-0.4,0.9-0.9,0.9c-0.5,0-0.9-0.4-0.9-0.9c0-0.5,0.4-0.9,0.9-0.9
					C155.3,126.1,155.7,126.6,155.7,127.1"/>
				<path class="st2" d="M114.1,102.6c0,0.5-0.4,0.9-0.9,0.9c-0.5,0-0.9-0.4-0.9-0.9c0-0.5,0.4-0.9,0.9-0.9
					C113.7,101.7,114.1,102.1,114.1,102.6"/>
				<path class="st2" d="M125.7,120.1c0,0.5-0.4,0.9-0.9,0.9c-0.5,0-0.9-0.4-0.9-0.9c0-0.5,0.4-0.9,0.9-0.9
					C125.3,119.1,125.7,119.6,125.7,120.1"/>
				<path class="st2" d="M145.1,161.3c0,0.5-0.4,0.9-0.9,0.9c-0.5,0-0.9-0.4-0.9-0.9c0-0.5,0.4-0.9,0.9-0.9
					C144.7,160.4,145.1,160.8,145.1,161.3"/>
				<path class="st2" d="M77.9,178.3c0,0.5-0.4,0.9-0.9,0.9c-0.5,0-0.9-0.4-0.9-0.9c0-0.5,0.4-0.9,0.9-0.9
					C77.5,177.4,77.9,177.8,77.9,178.3"/>
				<path class="st2" d="M311.4,42.6c0,0.5-0.4,0.9-0.9,0.9c-0.5,0-0.9-0.4-0.9-0.9c0-0.5,0.4-0.9,0.9-0.9
					C311,41.6,311.4,42.1,311.4,42.6"/>
				<path class="st2" d="M313.6,14.6c0,0.5-0.4,0.9-0.9,0.9c-0.5,0-0.9-0.4-0.9-0.9c0-0.5,0.4-0.9,0.9-0.9
					C313.2,13.7,313.6,14.1,313.6,14.6"/>
				<path class="st2" d="M308.1,5.3c0,0.5-0.4,0.9-0.9,0.9c-0.5,0-0.9-0.4-0.9-0.9c0-0.5,0.4-0.9,0.9-0.9
					C307.6,4.3,308.1,4.7,308.1,5.3"/>
				<path class="st2" d="M288.1,0.9c0,0.5-0.4,0.9-0.9,0.9c-0.5,0-0.9-0.4-0.9-0.9c0-0.5,0.4-0.9,0.9-0.9
					C287.7,0,288.1,0.4,288.1,0.9"/>
			</g>
		</g>
		<g class="st3">
			<g>
				<defs>
					<rect id="SVGID_7_" y="20.6" width="730.5" height="561.4"/>
				</defs>
				<clipPath id="SVGID_8_">
					<use xlink:href="#SVGID_7_"  style="overflow:visible;"/>
				</clipPath>
				
					<linearGradient id="SVGID_9_" gradientUnits="userSpaceOnUse" x1="0" y1="583.0499" x2="1" y2="583.0499" gradientTransform="matrix(75.1691 75.1691 75.1691 -75.1691 -43456.3477 44106.2539)">
					<stop  offset="0" style="stop-color:#B9438F"/>
					<stop  offset="0.9873" style="stop-color:#6769FF"/>
					<stop  offset="1" style="stop-color:#6769FF"/>
				</linearGradient>
				<polygon class="st4" points="471.7,327.6 471.7,327.6 373,333 380.8,269.8 471.7,327.6 471.7,327.6 471.7,327.6 380.8,269.8 
					373,333 471.7,327.6 				"/>
				
					<linearGradient id="SVGID_10_" gradientUnits="userSpaceOnUse" x1="0" y1="583.0476" x2="1" y2="583.0476" gradientTransform="matrix(88.2901 88.2901 88.2901 -88.2901 -51012.4727 51747.3594)">
					<stop  offset="0" style="stop-color:#B9438F"/>
					<stop  offset="0.9873" style="stop-color:#6769FF"/>
					<stop  offset="1" style="stop-color:#6769FF"/>
				</linearGradient>
				<polygon class="st5" points="548.7,257.4 548.7,257.4 512.7,397.6 417.1,318.8 548.7,257.4 548.7,257.4 548.7,257.4 
					417.1,318.8 512.7,397.6 548.7,257.4 				"/>
				
					<linearGradient id="SVGID_11_" gradientUnits="userSpaceOnUse" x1="0" y1="583.0504" x2="1" y2="583.0504" gradientTransform="matrix(93.9814 93.9814 93.9814 -93.9814 -54277.668 54912.0312)">
					<stop  offset="0" style="stop-color:#B9438F"/>
					<stop  offset="0.9873" style="stop-color:#6769FF"/>
					<stop  offset="1" style="stop-color:#6769FF"/>
				</linearGradient>
				<path class="st6" d="M609.5,112.8L609.5,112.8c-1.9,0-116,29.2-116,29.2l55.2,115.4l118.5-103L609.5,112.8L609.5,112.8
					L609.5,112.8l57.7,41.6l-118.5,103L493.5,142C493.5,142,607.6,112.8,609.5,112.8L609.5,112.8z"/>
				
					<linearGradient id="SVGID_12_" gradientUnits="userSpaceOnUse" x1="0" y1="583.0506" x2="1" y2="583.0506" gradientTransform="matrix(103.534 103.534 103.534 -103.534 -59926.2617 60527.1836)">
					<stop  offset="0" style="stop-color:#B9438F"/>
					<stop  offset="0.9873" style="stop-color:#6769FF"/>
					<stop  offset="1" style="stop-color:#6769FF"/>
				</linearGradient>
				<polygon class="st7" points="402.9,199 402.9,199 493.5,142 548.7,257.4 402.9,199 402.9,199 402.9,199 548.7,257.4 493.5,142 
					402.9,199 				"/>
				
					<linearGradient id="SVGID_13_" gradientUnits="userSpaceOnUse" x1="0" y1="583.05" x2="1" y2="583.05" gradientTransform="matrix(102.77 102.77 102.77 -102.77 -59522.0234 60123.2344)">
					<stop  offset="0" style="stop-color:#B9438F"/>
					<stop  offset="0.9873" style="stop-color:#6769FF"/>
					<stop  offset="1" style="stop-color:#6769FF"/>
				</linearGradient>
				<polygon class="st8" points="417.1,318.8 417.1,318.8 548.7,257.4 402.9,199 417.1,318.8 417.1,318.8 417.1,318.8 402.9,199 
					548.7,257.4 417.1,318.8 				"/>
				
					<linearGradient id="SVGID_14_" gradientUnits="userSpaceOnUse" x1="0" y1="583.0541" x2="1" y2="583.0541" gradientTransform="matrix(42.0909 42.0909 42.0909 -42.0909 -24216.957 24909.2168)">
					<stop  offset="0" style="stop-color:#B9438F"/>
					<stop  offset="0.9873" style="stop-color:#6769FF"/>
					<stop  offset="1" style="stop-color:#6769FF"/>
				</linearGradient>
				<polygon class="st9" points="282.7,410 282.7,410 373,333 385.8,390.1 282.7,410 282.7,410 282.7,410 385.8,390.1 373,333 
					282.7,410 				"/>
				
					<linearGradient id="SVGID_15_" gradientUnits="userSpaceOnUse" x1="0" y1="583.0513" x2="1" y2="583.0513" gradientTransform="matrix(80.7621 80.7621 80.7621 -80.7621 -46805.5508 47421.1523)">
					<stop  offset="0" style="stop-color:#B9438F"/>
					<stop  offset="0.9873" style="stop-color:#6769FF"/>
					<stop  offset="1" style="stop-color:#6769FF"/>
				</linearGradient>
				<polygon class="st10" points="322.3,294.6 322.3,294.6 282.7,410 385.8,390.1 322.3,294.6 322.3,294.6 322.3,294.6 385.8,390.1 
					282.7,410 322.3,294.6 				"/>
				
					<linearGradient id="SVGID_16_" gradientUnits="userSpaceOnUse" x1="0" y1="583.0483" x2="1" y2="583.0483" gradientTransform="matrix(125.249 125.249 125.249 -125.249 -72761.5703 73452.9688)">
					<stop  offset="0" style="stop-color:#B9438F"/>
					<stop  offset="0.9873" style="stop-color:#6769FF"/>
					<stop  offset="1" style="stop-color:#6769FF"/>
				</linearGradient>
				<path class="st11" d="M445.1,494.3L445.1,494.3c-3.1,0-158.3,63.4-162.3,63.4c-0.1,0-0.1,0-0.1,0c0,0,0,0,0,0
					c0.1-0.6,0.2-17.2,0.2-39.1c0-43.8-0.2-108.6-0.2-108.6L445.1,494.3L445.1,494.3L445.1,494.3L282.7,410c0,0,0.2,64.8,0.2,108.6
					c0,21.9,0,38.5-0.2,39.1c0,0,0,0,0,0c0,0,0,0,0.1,0C286.8,557.7,442,494.3,445.1,494.3L445.1,494.3z"/>
				
					<linearGradient id="SVGID_17_" gradientUnits="userSpaceOnUse" x1="0" y1="583.0519" x2="1" y2="583.0519" gradientTransform="matrix(70.9689 70.9689 70.9689 -70.9689 -40874.25 41679.6445)">
					<stop  offset="0" style="stop-color:#B9438F"/>
					<stop  offset="0.9873" style="stop-color:#6769FF"/>
					<stop  offset="1" style="stop-color:#6769FF"/>
				</linearGradient>
				<polygon class="st12" points="613.2,333.7 613.2,333.7 548.7,257.4 512.7,397.6 613.2,333.7 613.2,333.7 613.2,333.7 
					512.7,397.6 548.7,257.4 613.2,333.7 				"/>
				
					<linearGradient id="SVGID_18_" gradientUnits="userSpaceOnUse" x1="0" y1="583.05" x2="1" y2="583.05" gradientTransform="matrix(71.7534 71.7534 71.7534 -71.7534 -41232.1133 42037.4531)">
					<stop  offset="0" style="stop-color:#B9438F"/>
					<stop  offset="0.9873" style="stop-color:#6769FF"/>
					<stop  offset="1" style="stop-color:#6769FF"/>
				</linearGradient>
				<polygon class="st13" points="667.2,154.4 667.2,154.4 548.7,257.4 646.7,301.4 667.2,154.4 667.2,154.4 667.2,154.4 
					646.7,301.4 548.7,257.4 667.2,154.4 				"/>
				
					<linearGradient id="SVGID_19_" gradientUnits="userSpaceOnUse" x1="0" y1="583.0485" x2="1" y2="583.0485" gradientTransform="matrix(118.139 118.139 118.139 -118.139 -68310.9375 69220.3828)">
					<stop  offset="0" style="stop-color:#B9438F"/>
					<stop  offset="0.9873" style="stop-color:#6769FF"/>
					<stop  offset="1" style="stop-color:#6769FF"/>
				</linearGradient>
				<polygon class="st14" points="512.7,397.6 512.7,397.6 641.1,503.1 646.7,301.4 512.7,397.6 512.7,397.6 512.7,397.6 
					646.7,301.4 641.1,503.1 512.7,397.6 				"/>
				
					<linearGradient id="SVGID_20_" gradientUnits="userSpaceOnUse" x1="0" y1="583.05" x2="1" y2="583.05" gradientTransform="matrix(87.8862 87.8862 87.8862 -87.8862 -50846.75 51581.9727)">
					<stop  offset="0" style="stop-color:#B9438F"/>
					<stop  offset="0.9873" style="stop-color:#6769FF"/>
					<stop  offset="1" style="stop-color:#6769FF"/>
				</linearGradient>
				<polygon class="st15" points="385.8,390.1 385.8,390.1 512.7,397.6 417.1,318.8 385.8,390.1 385.8,390.1 385.8,390.1 
					417.1,318.8 512.7,397.6 385.8,390.1 				"/>
				
					<linearGradient id="SVGID_21_" gradientUnits="userSpaceOnUse" x1="0" y1="583.0526" x2="1" y2="583.0526" gradientTransform="matrix(83.0095 83.0095 83.0095 -83.0095 -47923.6914 48833.1484)">
					<stop  offset="0" style="stop-color:#B9438F"/>
					<stop  offset="0.9873" style="stop-color:#6769FF"/>
					<stop  offset="1" style="stop-color:#6769FF"/>
				</linearGradient>
				<polygon class="st16" points="602.6,471.4 602.6,471.4 445.1,494.3 512.7,397.6 602.6,471.4 602.6,471.4 602.6,471.4 
					512.7,397.6 445.1,494.3 602.6,471.4 				"/>
				
					<linearGradient id="SVGID_22_" gradientUnits="userSpaceOnUse" x1="0" y1="583.0505" x2="1" y2="583.0505" gradientTransform="matrix(82.6955 82.6955 82.6955 -82.6955 -47836.2812 48437.6133)">
					<stop  offset="0" style="stop-color:#B9438F"/>
					<stop  offset="0.9873" style="stop-color:#6769FF"/>
					<stop  offset="1" style="stop-color:#6769FF"/>
				</linearGradient>
				<polygon class="st17" points="402.9,199 402.9,199 380.8,269.8 482.9,282.8 402.9,199 402.9,199 402.9,199 482.9,282.8 
					380.8,269.8 402.9,199 				"/>
				
					<linearGradient id="SVGID_23_" gradientUnits="userSpaceOnUse" x1="0" y1="583.05" x2="1" y2="583.05" gradientTransform="matrix(61.1975 61.1975 61.1975 -61.1975 -35241.7539 35842.9688)">
					<stop  offset="0" style="stop-color:#B9438F"/>
					<stop  offset="0.9873" style="stop-color:#6769FF"/>
					<stop  offset="1" style="stop-color:#6769FF"/>
				</linearGradient>
				<polygon class="st18" points="493.5,142 493.5,142 508.4,214.5 402.9,199 493.5,142 493.5,142 493.5,142 402.9,199 508.4,214.5 
					493.5,142 				"/>
				
					<linearGradient id="SVGID_24_" gradientUnits="userSpaceOnUse" x1="0" y1="583.0489" x2="1" y2="583.0489" gradientTransform="matrix(83.4898 83.4898 83.4898 -83.4898 -48255.2383 48855.082)">
					<stop  offset="0" style="stop-color:#B9438F"/>
					<stop  offset="0.9873" style="stop-color:#6769FF"/>
					<stop  offset="1" style="stop-color:#6769FF"/>
				</linearGradient>
				<polygon class="st19" points="482.9,282.8 482.9,282.8 508.4,214.5 402.9,199 482.9,282.8 482.9,282.8 482.9,282.8 402.9,199 
					508.4,214.5 482.9,282.8 				"/>
				
					<linearGradient id="SVGID_25_" gradientUnits="userSpaceOnUse" x1="0" y1="583.05" x2="1" y2="583.05" gradientTransform="matrix(42.5903 42.5903 42.5903 -42.5903 -24274.4824 24996.0566)">
					<stop  offset="0" style="stop-color:#B9438F"/>
					<stop  offset="0.9873" style="stop-color:#6769FF"/>
					<stop  offset="1" style="stop-color:#6769FF"/>
				</linearGradient>
				<polygon class="st20" points="609.5,112.8 609.5,112.8 508.4,214.5 548.7,257.4 609.5,112.8 609.5,112.8 609.5,112.8 
					548.7,257.4 508.4,214.5 609.5,112.8 				"/>
				
					<linearGradient id="SVGID_26_" gradientUnits="userSpaceOnUse" x1="0" y1="583.0517" x2="1" y2="583.0517" gradientTransform="matrix(75.2012 75.2012 75.2012 -75.2012 -43486.8359 44135.8906)">
					<stop  offset="0" style="stop-color:#B9438F"/>
					<stop  offset="0.9873" style="stop-color:#6769FF"/>
					<stop  offset="1" style="stop-color:#6769FF"/>
				</linearGradient>
				<polygon class="st21" points="385.8,390.1 385.8,390.1 471.1,327.5 380.8,269.8 385.8,390.1 385.8,390.1 385.8,390.1 
					380.8,269.8 471.1,327.5 385.8,390.1 				"/>
				
					<linearGradient id="SVGID_27_" gradientUnits="userSpaceOnUse" x1="0" y1="583.0486" x2="1" y2="583.0486" gradientTransform="matrix(66.0291 66.0291 66.0291 -66.0291 -38189.2305 38881.3359)">
					<stop  offset="0" style="stop-color:#B9438F"/>
					<stop  offset="0.9873" style="stop-color:#6769FF"/>
					<stop  offset="1" style="stop-color:#6769FF"/>
				</linearGradient>
				<polygon class="st22" points="339.8,483.9 339.8,483.9 385.8,390.1 282.7,410 339.8,483.9 339.8,483.9 339.8,483.9 282.7,410 
					385.8,390.1 339.8,483.9 				"/>
				
					<linearGradient id="SVGID_28_" gradientUnits="userSpaceOnUse" x1="0" y1="583.0535" x2="1" y2="583.0535" gradientTransform="matrix(68.4018 68.4018 68.4018 -68.4018 -39459.6094 40234.5625)">
					<stop  offset="0" style="stop-color:#B9438F"/>
					<stop  offset="0.9873" style="stop-color:#6769FF"/>
					<stop  offset="1" style="stop-color:#6769FF"/>
				</linearGradient>
				<polygon class="st23" points="471.1,327.5 471.1,327.5 512.7,397.6 385.8,390.1 471.1,327.5 471.1,327.5 471.1,327.5 
					385.8,390.1 512.7,397.6 471.1,327.5 				"/>
				
					<linearGradient id="SVGID_29_" gradientUnits="userSpaceOnUse" x1="0" y1="583.0542" x2="1" y2="583.0542" gradientTransform="matrix(82.8184 82.8184 82.8184 -82.8184 -47829.1953 48738.3164)">
					<stop  offset="0" style="stop-color:#B9438F"/>
					<stop  offset="0.9873" style="stop-color:#6769FF"/>
					<stop  offset="1" style="stop-color:#6769FF"/>
				</linearGradient>
				<polygon class="st24" points="512.7,397.6 512.7,397.6 464.9,580.6 602.6,471.4 512.7,397.6 512.7,397.6 512.7,397.6 
					602.6,471.4 464.9,580.6 512.7,397.6 				"/>
				
					<linearGradient id="SVGID_30_" gradientUnits="userSpaceOnUse" x1="0" y1="583.0391" x2="1" y2="583.0391" gradientTransform="matrix(61.2911 61.2911 61.2911 -61.2911 -35070.5117 36134.4453)">
					<stop  offset="0" style="stop-color:#B9438F"/>
					<stop  offset="0.9873" style="stop-color:#6769FF"/>
					<stop  offset="1" style="stop-color:#6769FF"/>
				</linearGradient>
				<path class="st25" d="M729.2,336.8L729.2,336.8c0,0-30.4,152-32.3,152c-1.9,0-55.8,14.3-55.8,14.3L729.2,336.8L729.2,336.8
					L729.2,336.8l-88.1,166.3c0,0,54-14.3,55.8-14.3C698.8,488.8,729.2,336.8,729.2,336.8L729.2,336.8z"/>
				
					<linearGradient id="SVGID_31_" gradientUnits="userSpaceOnUse" x1="0" y1="583.0464" x2="1" y2="583.0464" gradientTransform="matrix(92.3878 92.3878 92.3878 -92.3878 -53361.5156 54126.7695)">
					<stop  offset="0" style="stop-color:#B9438F"/>
					<stop  offset="0.9873" style="stop-color:#6769FF"/>
					<stop  offset="1" style="stop-color:#6769FF"/>
				</linearGradient>
				<polygon class="st26" points="471.1,327.5 471.1,327.5 646.7,301.4 482.9,282.8 471.1,327.5 471.1,327.5 471.1,327.5 
					482.9,282.8 646.7,301.4 471.1,327.5 				"/>
				
					<linearGradient id="SVGID_32_" gradientUnits="userSpaceOnUse" x1="0" y1="583.0493" x2="1" y2="583.0493" gradientTransform="matrix(60.5439 60.5439 60.5439 -60.5439 -34658.8125 35605.3438)">
					<stop  offset="0" style="stop-color:#B9438F"/>
					<stop  offset="0.9873" style="stop-color:#6769FF"/>
					<stop  offset="1" style="stop-color:#6769FF"/>
				</linearGradient>
				<polygon class="st27" points="729.2,336.8 729.2,336.8 646.7,301.4 613.2,333.7 729.2,336.8 729.2,336.8 729.2,336.8 
					613.2,333.7 646.7,301.4 729.2,336.8 				"/>
				
					<linearGradient id="SVGID_33_" gradientUnits="userSpaceOnUse" x1="0" y1="583.05" x2="1" y2="583.05" gradientTransform="matrix(122.944 122.944 122.944 -122.944 -71057.5391 71878.3906)">
					<stop  offset="0" style="stop-color:#B9438F"/>
					<stop  offset="0.9873" style="stop-color:#6769FF"/>
					<stop  offset="1" style="stop-color:#6769FF"/>
				</linearGradient>
				<polygon class="st28" points="667.2,154.4 667.2,154.4 729.2,336.8 646.7,301.4 667.2,154.4 667.2,154.4 667.2,154.4 
					646.7,301.4 729.2,336.8 667.2,154.4 				"/>
				<g class="st29">
					<g>
						<defs>
							<rect id="SVGID_34_" x="217.1" y="46.3" width="185.8" height="153.2"/>
						</defs>
						<clipPath id="SVGID_35_">
							<use xlink:href="#SVGID_34_"  style="overflow:visible;"/>
						</clipPath>
						
							<linearGradient id="SVGID_36_" gradientUnits="userSpaceOnUse" x1="0" y1="583.0488" x2="1" y2="583.0488" gradientTransform="matrix(149.201 149.201 149.201 -149.201 -86744.3047 87048.3203)">
							<stop  offset="0" style="stop-color:#B9438F"/>
							<stop  offset="0.9873" style="stop-color:#6769FF"/>
							<stop  offset="1" style="stop-color:#6769FF"/>
						</linearGradient>
						<polygon class="st30" points="217.3,87.3 297.6,47 340.5,145.1 339.5,199 402.9,199 402.9,199 339.5,199 340.5,145.1 
							297.6,47 217.3,87.3 						"/>
					</g>
				</g>
				<g class="st31">
					<g>
						<defs>
							<rect id="SVGID_37_" x="430.9" y="40.2" width="112.4" height="108.7"/>
						</defs>
						<clipPath id="SVGID_38_">
							<use xlink:href="#SVGID_37_"  style="overflow:visible;"/>
						</clipPath>
						
							<linearGradient id="SVGID_39_" gradientUnits="userSpaceOnUse" x1="0" y1="583.0552" x2="1" y2="583.0552" gradientTransform="matrix(48.2055 48.2055 48.2055 -48.2055 -27662.002 28166.7988)">
							<stop  offset="0" style="stop-color:#B9438F"/>
							<stop  offset="0.9873" style="stop-color:#6769FF"/>
							<stop  offset="1" style="stop-color:#6769FF"/>
						</linearGradient>
						<polygon class="st32" points="464.9,40.8 464.9,40.8 431.8,147.5 542.2,58.2 464.9,40.8 464.9,40.8 464.9,40.8 542.2,58.2 
							431.8,147.5 464.9,40.8 						"/>
					</g>
				</g>
				<g class="st33">
					<g>
						<defs>
							<rect id="SVGID_40_" x="344.6" y="20.6" width="58.5" height="93.7"/>
						</defs>
						<clipPath id="SVGID_41_">
							<use xlink:href="#SVGID_40_"  style="overflow:visible;"/>
						</clipPath>
						
							<linearGradient id="SVGID_42_" gradientUnits="userSpaceOnUse" x1="0" y1="583.0482" x2="1" y2="583.0482" gradientTransform="matrix(43.3987 43.3987 43.3987 -43.3987 -24949.9707 25341.2676)">
							<stop  offset="0" style="stop-color:#B9438F"/>
							<stop  offset="0.9873" style="stop-color:#6769FF"/>
							<stop  offset="1" style="stop-color:#6769FF"/>
						</linearGradient>
						<polygon class="st34" points="345.2,47 345.2,47 402.1,21.6 363.9,112.8 345.2,47 345.2,47 345.2,47 363.9,112.8 402.1,21.6 
							345.2,47 						"/>
					</g>
				</g>
				<g class="st33">
					<g>
						<defs>
							<rect id="SVGID_43_" x="61.9" y="172.4" width="57" height="34.4"/>
						</defs>
						<clipPath id="SVGID_44_">
							<use xlink:href="#SVGID_43_"  style="overflow:visible;"/>
						</clipPath>
						
							<linearGradient id="SVGID_45_" gradientUnits="userSpaceOnUse" x1="0" y1="583.0468" x2="1" y2="583.0468" gradientTransform="matrix(-2.9181 36.0188 36.0188 2.9181 -20908.3379 -1528.3623)">
							<stop  offset="0" style="stop-color:#B9438F"/>
							<stop  offset="0.9873" style="stop-color:#6769FF"/>
							<stop  offset="1" style="stop-color:#6769FF"/>
						</linearGradient>
						<polygon class="st35" points="85.1,173.1 85.1,173.1 117.6,188.6 63.1,205.9 85.1,173.1 85.1,173.1 85.1,173.1 63.1,205.9 
							117.6,188.6 85.1,173.1 						"/>
					</g>
				</g>
				<g class="st33">
					<g>
						<defs>
							<rect id="SVGID_46_" x="222.1" y="105.9" width="101.4" height="44.6"/>
						</defs>
						<clipPath id="SVGID_47_">
							<use xlink:href="#SVGID_46_"  style="overflow:visible;"/>
						</clipPath>
						
							<linearGradient id="SVGID_48_" gradientUnits="userSpaceOnUse" x1="0" y1="583.0562" x2="1" y2="583.0562" gradientTransform="matrix(50.6912 50.6912 50.6912 -50.6912 -29307.9531 29680.5625)">
							<stop  offset="0" style="stop-color:#B9438F"/>
							<stop  offset="0.9873" style="stop-color:#6769FF"/>
							<stop  offset="1" style="stop-color:#6769FF"/>
						</linearGradient>
						<polygon class="st36" points="223.5,150 223.5,150 279.3,106.6 322.3,150 223.5,150 223.5,150 223.5,150 322.3,150 
							279.3,106.6 223.5,150 						"/>
					</g>
				</g>
				<g class="st33">
					<g>
						<defs>
							<rect id="SVGID_49_" x="149.7" y="20.9" width="74.7" height="32.9"/>
						</defs>
						<clipPath id="SVGID_50_">
							<use xlink:href="#SVGID_49_"  style="overflow:visible;"/>
						</clipPath>
						
							<linearGradient id="SVGID_51_" gradientUnits="userSpaceOnUse" x1="0" y1="583.0583" x2="1" y2="583.0583" gradientTransform="matrix(37.3394 37.3394 37.3394 -37.3394 -21602.2617 21805.7461)">
							<stop  offset="0" style="stop-color:#B9438F"/>
							<stop  offset="0.9873" style="stop-color:#6769FF"/>
							<stop  offset="1" style="stop-color:#6769FF"/>
						</linearGradient>
						<polygon class="st37" points="151.2,53.3 151.2,53.3 191.8,21.6 223.2,53.3 151.2,53.3 151.2,53.3 151.2,53.3 223.2,53.3 
							191.8,21.6 151.2,53.3 						"/>
					</g>
				</g>
				<g class="st33">
					<g>
						<defs>
							<rect id="SVGID_52_" x="107.7" y="72.1" width="46.1" height="61.6"/>
						</defs>
						<clipPath id="SVGID_53_">
							<use xlink:href="#SVGID_52_"  style="overflow:visible;"/>
						</clipPath>
						
							<linearGradient id="SVGID_54_" gradientUnits="userSpaceOnUse" x1="0" y1="583.0565" x2="1" y2="583.0565" gradientTransform="matrix(53.7057 -17.95 -17.95 -53.7057 10573.1104 31424.916)">
							<stop  offset="0" style="stop-color:#B9438F"/>
							<stop  offset="0.9873" style="stop-color:#6769FF"/>
							<stop  offset="1" style="stop-color:#6769FF"/>
						</linearGradient>
						<polygon class="st38" points="115,132.4 115,132.4 108.3,87.6 152.6,73 115,132.4 115,132.4 115,132.4 152.6,73 108.3,87.6 
							115,132.4 						"/>
					</g>
				</g>
				
					<linearGradient id="SVGID_55_" gradientUnits="userSpaceOnUse" x1="0" y1="583.0571" x2="1" y2="583.0571" gradientTransform="matrix(48.9156 48.9156 48.9156 -48.9156 -28277.9746 28732.7227)">
					<stop  offset="0" style="stop-color:#B9438F"/>
					<stop  offset="0.9873" style="stop-color:#6769FF"/>
					<stop  offset="1" style="stop-color:#6769FF"/>
				</linearGradient>
				<polygon class="st39" points="214.9,240.9 214.9,240.9 273.3,196.6 318.9,231.9 214.9,240.9 214.9,240.9 214.9,240.9 
					318.9,231.9 273.3,196.6 214.9,240.9 				"/>
				
					<linearGradient id="SVGID_56_" gradientUnits="userSpaceOnUse" x1="0" y1="583.053" x2="1" y2="583.053" gradientTransform="matrix(35.1411 35.1411 35.1411 -35.1411 -20239.5879 20785.3984)">
					<stop  offset="0" style="stop-color:#B9438F"/>
					<stop  offset="0.9873" style="stop-color:#6769FF"/>
					<stop  offset="1" style="stop-color:#6769FF"/>
				</linearGradient>
				<polygon class="st40" points="262.5,352.3 262.5,352.3 251.4,295.5 291,294.6 262.5,352.3 262.5,352.3 262.5,352.3 291,294.6 
					251.4,295.5 262.5,352.3 				"/>
				<g class="st33">
					<g>
						<defs>
							<rect id="SVGID_57_" x="158.9" y="206.9" width="24.7" height="26"/>
						</defs>
						<clipPath id="SVGID_58_">
							<use xlink:href="#SVGID_57_"  style="overflow:visible;"/>
						</clipPath>
						
							<linearGradient id="SVGID_59_" gradientUnits="userSpaceOnUse" x1="0" y1="583.0624" x2="1" y2="583.0624" gradientTransform="matrix(15.8232 15.8232 15.8232 -15.8232 -9067.3975 9439.1865)">
							<stop  offset="0" style="stop-color:#B9438F"/>
							<stop  offset="0.9873" style="stop-color:#6769FF"/>
							<stop  offset="1" style="stop-color:#6769FF"/>
						</linearGradient>
						<polygon class="st41" points="165.2,207.7 165.2,207.7 159.6,231.9 182.6,219.8 165.2,207.7 165.2,207.7 165.2,207.7 
							182.6,219.8 159.6,231.9 165.2,207.7 						"/>
					</g>
				</g>
				<g class="st33">
					<g>
						<defs>
							<rect id="SVGID_60_" x="73.4" y="393.4" width="26.3" height="22.2"/>
						</defs>
						<clipPath id="SVGID_61_">
							<use xlink:href="#SVGID_60_"  style="overflow:visible;"/>
						</clipPath>
						
							<linearGradient id="SVGID_62_" gradientUnits="userSpaceOnUse" x1="0" y1="583.0624" x2="1" y2="583.0624" gradientTransform="matrix(-8.5272 20.6889 20.6889 8.5272 -11971.5342 -4581.918)">
							<stop  offset="0" style="stop-color:#B9438F"/>
							<stop  offset="0.9873" style="stop-color:#6769FF"/>
							<stop  offset="1" style="stop-color:#6769FF"/>
						</linearGradient>
						<polygon class="st42" points="99.1,394 99.1,394 74.6,398.1 94.6,414.7 99.1,394 99.1,394 99.1,394 94.6,414.7 74.6,398.1 
							99.1,394 						"/>
					</g>
				</g>
				<g class="st33">
					<g>
						<defs>
							<rect id="SVGID_63_" x="15.4" y="149.4" width="26.3" height="22.2"/>
						</defs>
						<clipPath id="SVGID_64_">
							<use xlink:href="#SVGID_63_"  style="overflow:visible;"/>
						</clipPath>
						
							<linearGradient id="SVGID_65_" gradientUnits="userSpaceOnUse" x1="0" y1="583.0624" x2="1" y2="583.0624" gradientTransform="matrix(-8.5272 20.6889 20.6889 8.5272 -12029.5889 -4825.8979)">
							<stop  offset="0" style="stop-color:#B9438F"/>
							<stop  offset="0.9873" style="stop-color:#6769FF"/>
							<stop  offset="1" style="stop-color:#6769FF"/>
						</linearGradient>
						<polygon class="st43" points="41,150 41,150 16.5,154.2 36.5,170.7 41,150 41,150 41,150 36.5,170.7 16.5,154.2 41,150 						
							"/>
					</g>
				</g>
				<g class="st33">
					<g>
						<defs>
							<rect id="SVGID_66_" x="134" y="355" width="68" height="76.3"/>
						</defs>
						<clipPath id="SVGID_67_">
							<use xlink:href="#SVGID_66_"  style="overflow:visible;"/>
						</clipPath>
						
							<linearGradient id="SVGID_68_" gradientUnits="userSpaceOnUse" x1="0" y1="583.0544" x2="1" y2="583.0544" gradientTransform="matrix(45.9192 45.9192 45.9192 -45.9192 -26637.3008 27154.2598)">
							<stop  offset="0" style="stop-color:#B9438F"/>
							<stop  offset="0.9873" style="stop-color:#6769FF"/>
							<stop  offset="1" style="stop-color:#6769FF"/>
						</linearGradient>
						<polygon class="st44" points="134.8,430.5 134.8,430.5 162.1,356 201.2,406.5 134.8,430.5 134.8,430.5 134.8,430.5 
							201.2,406.5 162.1,356 134.8,430.5 						"/>
					</g>
				</g>
				<g class="st33">
					<g>
						<defs>
							<rect id="SVGID_69_" y="278.6" width="106" height="80.3"/>
						</defs>
						<clipPath id="SVGID_70_">
							<use xlink:href="#SVGID_69_"  style="overflow:visible;"/>
						</clipPath>
						
							<linearGradient id="SVGID_71_" gradientUnits="userSpaceOnUse" x1="0" y1="583.0527" x2="1" y2="583.0527" gradientTransform="matrix(43.4687 -71.9209 -71.9209 -43.4687 41976.5156 25710.2344)">
							<stop  offset="0" style="stop-color:#B9438F"/>
							<stop  offset="0.9873" style="stop-color:#6769FF"/>
							<stop  offset="1" style="stop-color:#6769FF"/>
						</linearGradient>
						<polygon class="st45" points="105,358.2 105,358.2 1,339.5 61.1,279.4 105,358.2 105,358.2 105,358.2 61.1,279.4 1,339.5 
							105,358.2 						"/>
					</g>
				</g>
				<g class="st46">
					<g>
						<defs>
							<rect id="SVGID_72_" x="142.6" y="258.5" width="140.5" height="162.2"/>
						</defs>
						<clipPath id="SVGID_73_">
							<use xlink:href="#SVGID_72_"  style="overflow:visible;"/>
						</clipPath>
						
							<linearGradient id="SVGID_74_" gradientUnits="userSpaceOnUse" x1="4.280715e-04" y1="583.0522" x2="0.9997" y2="583.0522" gradientTransform="matrix(145.567 145.567 145.567 -145.567 -84745.9375 85147.6094)">
							<stop  offset="0" style="stop-color:#B9438F"/>
							<stop  offset="0.9873" style="stop-color:#6769FF"/>
							<stop  offset="1" style="stop-color:#6769FF"/>
						</linearGradient>
						<polygon class="st47" points="282.7,410 234.7,348.6 227.9,418.4 182.6,286.5 142.9,258.9 142.9,258.9 182.6,286.5 
							227.9,418.4 234.7,348.6 282.7,410 						"/>
					</g>
				</g>
				
					<linearGradient id="SVGID_75_" gradientUnits="userSpaceOnUse" x1="0" y1="583.05" x2="1" y2="583.05" gradientTransform="matrix(82.5399 82.5399 82.5399 -82.5399 -47543.207 48452.7891)">
					<stop  offset="0" style="stop-color:#B9438F"/>
					<stop  offset="0.9873" style="stop-color:#6769FF"/>
					<stop  offset="1" style="stop-color:#6769FF"/>
				</linearGradient>
				<polygon class="st48" points="512.7,397.6 512.7,397.6 729.2,336.8 602.6,471.4 512.7,397.6 512.7,397.6 512.7,397.6 
					602.6,471.4 729.2,336.8 512.7,397.6 				"/>
				
					<linearGradient id="SVGID_76_" gradientUnits="userSpaceOnUse" x1="0" y1="583.0496" x2="1" y2="583.0496" gradientTransform="matrix(67.3188 67.3188 67.3188 -67.3188 -38627.9297 39680.1523)">
					<stop  offset="0" style="stop-color:#B9438F"/>
					<stop  offset="0.9873" style="stop-color:#6769FF"/>
					<stop  offset="1" style="stop-color:#6769FF"/>
				</linearGradient>
				<polygon class="st49" points="697,488.8 697,488.8 650.4,403.8 641.1,503.1 697,488.8 697,488.8 697,488.8 641.1,503.1 
					650.4,403.8 697,488.8 				"/>
				
					<linearGradient id="SVGID_77_" gradientUnits="userSpaceOnUse" x1="0" y1="583.0628" x2="1" y2="583.0628" gradientTransform="matrix(36.0584 36.0584 36.0584 -36.0584 -20451.1758 21524.0312)">
					<stop  offset="0" style="stop-color:#B9438F"/>
					<stop  offset="0.9873" style="stop-color:#6769FF"/>
					<stop  offset="1" style="stop-color:#6769FF"/>
				</linearGradient>
				<polygon class="st50" points="641.1,503.1 641.1,503.1 572.5,563.7 602.6,471.4 641.1,503.1 641.1,503.1 641.1,503.1 
					602.6,471.4 572.5,563.7 641.1,503.1 				"/>
				
					<linearGradient id="SVGID_78_" gradientUnits="userSpaceOnUse" x1="0" y1="583.0492" x2="1" y2="583.0492" gradientTransform="matrix(64.5383 64.5383 64.5383 -64.5383 -37037.1953 38052.918)">
					<stop  offset="0" style="stop-color:#B9438F"/>
					<stop  offset="0.9873" style="stop-color:#6769FF"/>
					<stop  offset="1" style="stop-color:#6769FF"/>
				</linearGradient>
				<polygon class="st51" points="650.4,403.8 650.4,403.8 552.7,463.5 641.1,503.1 650.4,403.8 650.4,403.8 650.4,403.8 
					641.1,503.1 552.7,463.5 650.4,403.8 				"/>
				
					<linearGradient id="SVGID_79_" gradientUnits="userSpaceOnUse" x1="0" y1="583.0466" x2="1" y2="583.0466" gradientTransform="matrix(66.9648 66.9648 66.9648 -66.9648 -38366.6953 39420.1836)">
					<stop  offset="0" style="stop-color:#B9438F"/>
					<stop  offset="0.9873" style="stop-color:#6769FF"/>
					<stop  offset="1" style="stop-color:#6769FF"/>
				</linearGradient>
				<polygon class="st52" points="729.2,336.8 729.2,336.8 650.4,403.8 697,488.8 729.2,336.8 729.2,336.8 729.2,336.8 697,488.8 
					650.4,403.8 729.2,336.8 				"/>
				
					<linearGradient id="SVGID_80_" gradientUnits="userSpaceOnUse" x1="0" y1="583.05" x2="1" y2="583.05" gradientTransform="matrix(28.7274 28.7274 28.7274 -28.7274 -16296.6572 16875.3203)">
					<stop  offset="0" style="stop-color:#B9438F"/>
					<stop  offset="0.9873" style="stop-color:#6769FF"/>
					<stop  offset="1" style="stop-color:#6769FF"/>
				</linearGradient>
				<polygon class="st53" points="431.8,147.5 431.8,147.5 493.5,142 487,117.2 431.8,147.5 431.8,147.5 431.8,147.5 487,117.2 
					493.5,142 431.8,147.5 				"/>
				
					<linearGradient id="SVGID_81_" gradientUnits="userSpaceOnUse" x1="0" y1="583.05" x2="1" y2="583.05" gradientTransform="matrix(135.513 135.513 135.513 -135.513 -78623.3906 79398.625)">
					<stop  offset="0" style="stop-color:#B9438F"/>
					<stop  offset="0.9873" style="stop-color:#6769FF"/>
					<stop  offset="1" style="stop-color:#6769FF"/>
				</linearGradient>
				<polygon class="st54" points="385.8,390.1 385.8,390.1 512.7,397.6 464.9,580.6 385.8,390.1 385.8,390.1 385.8,390.1 
					464.9,580.6 512.7,397.6 385.8,390.1 				"/>
				
					<linearGradient id="SVGID_82_" gradientUnits="userSpaceOnUse" x1="0" y1="583.0485" x2="1" y2="583.0485" gradientTransform="matrix(45.168 45.168 45.168 -45.168 -25992.4062 26608.6953)">
					<stop  offset="0" style="stop-color:#B9438F"/>
					<stop  offset="0.9873" style="stop-color:#6769FF"/>
					<stop  offset="1" style="stop-color:#6769FF"/>
				</linearGradient>
				<polygon class="st55" points="322.1,294.7 322.1,294.7 373,333 380.8,269.8 322.1,294.7 322.1,294.7 322.1,294.7 380.8,269.8 
					373,333 322.1,294.7 				"/>
				
					<linearGradient id="SVGID_83_" gradientUnits="userSpaceOnUse" x1="0" y1="583.05" x2="1" y2="583.05" gradientTransform="matrix(60.2498 60.2498 60.2498 -60.2498 -34785.9922 35402.1328)">
					<stop  offset="0" style="stop-color:#B9438F"/>
					<stop  offset="0.9873" style="stop-color:#6769FF"/>
					<stop  offset="1" style="stop-color:#6769FF"/>
				</linearGradient>
				<polygon class="st56" points="322.1,294.7 322.1,294.7 417.1,318.8 380.8,269.8 322.1,294.7 322.1,294.7 322.1,294.7 
					380.8,269.8 417.1,318.8 322.1,294.7 				"/>
				
					<linearGradient id="SVGID_84_" gradientUnits="userSpaceOnUse" x1="0" y1="583.0492" x2="1" y2="583.0492" gradientTransform="matrix(87.5518 87.5518 87.5518 -87.5518 -50541.9609 51340.2461)">
					<stop  offset="0" style="stop-color:#B9438F"/>
					<stop  offset="0.9873" style="stop-color:#6769FF"/>
					<stop  offset="1" style="stop-color:#6769FF"/>
				</linearGradient>
				<polygon class="st57" points="471.7,327.6 471.7,327.6 613.2,333.7 563,410 471.7,327.6 471.7,327.6 471.7,327.6 563,410 
					613.2,333.7 471.7,327.6 				"/>
				
					<linearGradient id="SVGID_85_" gradientUnits="userSpaceOnUse" x1="0" y1="583.0504" x2="1" y2="583.0504" gradientTransform="matrix(53.8309 53.8309 53.8309 -53.8309 -30870.8984 31780.2715)">
					<stop  offset="0" style="stop-color:#B9438F"/>
					<stop  offset="0.9873" style="stop-color:#6769FF"/>
					<stop  offset="1" style="stop-color:#6769FF"/>
				</linearGradient>
				<polygon class="st58" points="552.7,463.5 552.7,463.5 563,410 512.7,397.6 552.7,463.5 552.7,463.5 552.7,463.5 512.7,397.6 
					563,410 552.7,463.5 				"/>
				
					<linearGradient id="SVGID_86_" gradientUnits="userSpaceOnUse" x1="0" y1="583.0471" x2="1" y2="583.0471" gradientTransform="matrix(41.2058 41.2058 41.2058 -41.2058 -23454.7188 24427.2324)">
					<stop  offset="0" style="stop-color:#B9438F"/>
					<stop  offset="0.9873" style="stop-color:#6769FF"/>
					<stop  offset="1" style="stop-color:#6769FF"/>
				</linearGradient>
				<polygon class="st59" points="650.4,403.8 650.4,403.8 563,410 552.7,463.5 650.4,403.8 650.4,403.8 650.4,403.8 552.7,463.5 
					563,410 650.4,403.8 				"/>
				
					<linearGradient id="SVGID_87_" gradientUnits="userSpaceOnUse" x1="0" y1="583.0512" x2="1" y2="583.0512" gradientTransform="matrix(54.2161 54.2161 54.2161 -54.2161 -31029.4238 31975.8574)">
					<stop  offset="0" style="stop-color:#B9438F"/>
					<stop  offset="0.9873" style="stop-color:#6769FF"/>
					<stop  offset="1" style="stop-color:#6769FF"/>
				</linearGradient>
				<polygon class="st60" points="613.2,333.7 613.2,333.7 650.4,403.8 563,410 613.2,333.7 613.2,333.7 613.2,333.7 563,410 
					650.4,403.8 613.2,333.7 				"/>
				
					<linearGradient id="SVGID_88_" gradientUnits="userSpaceOnUse" x1="0" y1="583.048" x2="1" y2="583.048" gradientTransform="matrix(59.0537 59.0537 59.0537 -59.0537 -33901.7266 34536.4492)">
					<stop  offset="0" style="stop-color:#B9438F"/>
					<stop  offset="0.9873" style="stop-color:#6769FF"/>
					<stop  offset="1" style="stop-color:#6769FF"/>
				</linearGradient>
				<polygon class="st61" points="493.5,142 493.5,142 560.5,191.9 609.5,112.8 493.5,142 493.5,142 493.5,142 609.5,112.8 
					560.5,191.9 493.5,142 				"/>
				
					<linearGradient id="SVGID_89_" gradientUnits="userSpaceOnUse" x1="0" y1="583.0494" x2="1" y2="583.0494" gradientTransform="matrix(98.527 98.527 98.527 -98.527 -56855.6406 57607.5078)">
					<stop  offset="0" style="stop-color:#B9438F"/>
					<stop  offset="0.9873" style="stop-color:#6769FF"/>
					<stop  offset="1" style="stop-color:#6769FF"/>
				</linearGradient>
				<polygon class="st62" points="667.2,154.4 667.2,154.4 560.5,191.9 646.7,301.4 667.2,154.4 667.2,154.4 667.2,154.4 
					646.7,301.4 560.5,191.9 667.2,154.4 				"/>
				
					<linearGradient id="SVGID_90_" gradientUnits="userSpaceOnUse" x1="0" y1="583.0478" x2="1" y2="583.0478" gradientTransform="matrix(42.1744 42.1744 42.1744 -42.1744 -24063.4961 24785.8828)">
					<stop  offset="0" style="stop-color:#B9438F"/>
					<stop  offset="0.9873" style="stop-color:#6769FF"/>
					<stop  offset="1" style="stop-color:#6769FF"/>
				</linearGradient>
				<polygon class="st63" points="508.4,214.5 508.4,214.5 560.5,191.9 548.7,257.4 508.4,214.5 508.4,214.5 508.4,214.5 
					548.7,257.4 560.5,191.9 508.4,214.5 				"/>
				
					<linearGradient id="SVGID_91_" gradientUnits="userSpaceOnUse" x1="0" y1="583.0502" x2="1" y2="583.0502" gradientTransform="matrix(82.3498 82.3498 82.3498 -82.3498 -47663.4805 48438.875)">
					<stop  offset="0" style="stop-color:#B9438F"/>
					<stop  offset="0.9873" style="stop-color:#6769FF"/>
					<stop  offset="1" style="stop-color:#6769FF"/>
				</linearGradient>
				<polygon class="st64" points="385.8,390.1 385.8,390.1 339.8,483.9 445.1,494.3 385.8,390.1 385.8,390.1 385.8,390.1 
					445.1,494.3 339.8,483.9 385.8,390.1 				"/>
				
					<linearGradient id="SVGID_92_" gradientUnits="userSpaceOnUse" x1="0" y1="583.0504" x2="1" y2="583.0504" gradientTransform="matrix(58.4944 58.4944 58.4944 -58.4944 -33774.5977 34597.8672)">
					<stop  offset="0" style="stop-color:#B9438F"/>
					<stop  offset="0.9873" style="stop-color:#6769FF"/>
					<stop  offset="1" style="stop-color:#6769FF"/>
				</linearGradient>
				<polygon class="st65" points="282.7,557.7 282.7,557.7 339.8,483.9 445.1,494.3 282.7,557.7 282.7,557.7 282.7,557.7 
					445.1,494.3 339.8,483.9 282.7,557.7 				"/>
				
					<linearGradient id="SVGID_93_" gradientUnits="userSpaceOnUse" x1="0" y1="583.0527" x2="1" y2="583.0527" gradientTransform="matrix(53.4569 53.4569 53.4569 -53.4569 -30696.7949 31606.6426)">
					<stop  offset="0" style="stop-color:#B9438F"/>
					<stop  offset="0.9873" style="stop-color:#6769FF"/>
					<stop  offset="1" style="stop-color:#6769FF"/>
				</linearGradient>
				<polygon class="st66" points="552.7,463.5 552.7,463.5 445.1,494.3 512.7,397.6 552.7,463.5 552.7,463.5 552.7,463.5 
					512.7,397.6 445.1,494.3 552.7,463.5 				"/>
			</g>
		</g>
		<path class="st67" d="M496.2,141.9c0,1.7-1.4,3.1-3.1,3.1c-1.7,0-3.1-1.4-3.1-3.1c0-1.7,1.4-3.1,3.1-3.1
			C494.8,138.9,496.2,140.2,496.2,141.9"/>
		<path class="st67" d="M406.7,199.4c0,2.1-1.7,3.7-3.7,3.7c-2.1,0-3.7-1.7-3.7-3.7c0-2,1.7-3.7,3.7-3.7
			C405.1,195.7,406.7,197.3,406.7,199.4"/>
		<path class="st67" d="M734.2,338.3c0,3-2.4,5.4-5.4,5.4c-3,0-5.4-2.4-5.4-5.4c0-3,2.4-5.4,5.4-5.4
			C731.8,333,734.2,335.4,734.2,338.3"/>
		<path class="st67" d="M325.7,294.7c0,2-1.6,3.6-3.6,3.6c-2,0-3.6-1.6-3.6-3.6c0-2,1.6-3.6,3.6-3.6
			C324.1,291.1,325.7,292.7,325.7,294.7"/>
		<path class="st67" d="M391,390.1c0,2.6-2.1,4.7-4.7,4.7c-2.6,0-4.7-2.1-4.7-4.7c0-2.6,2.1-4.7,4.7-4.7
			C388.9,385.4,391,387.5,391,390.1"/>
		<path class="st67" d="M449.8,494.3c0,2.6-2.1,4.7-4.7,4.7c-2.6,0-4.7-2.1-4.7-4.7c0-2.6,2.1-4.7,4.7-4.7
			C447.7,489.5,449.8,491.7,449.8,494.3"/>
		<path class="st67" d="M474.1,327.6c0,1.3-1.1,2.4-2.4,2.4c-1.3,0-2.4-1.1-2.4-2.4c0-1.3,1.1-2.4,2.4-2.4
			C473,325.2,474.1,326.2,474.1,327.6"/>
		<path class="st67" d="M615.6,333.7c0,1.3-1.1,2.4-2.4,2.4s-2.4-1.1-2.4-2.4s1.1-2.4,2.4-2.4S615.6,332.4,615.6,333.7"/>
		<path class="st67" d="M375.4,333c0,1.3-1.1,2.4-2.4,2.4c-1.3,0-2.4-1.1-2.4-2.4s1.1-2.4,2.4-2.4
			C374.3,330.6,375.4,331.6,375.4,333"/>
		<path class="st67" d="M383.2,269.8c0,1.3-1.1,2.4-2.4,2.4c-1.3,0-2.4-1.1-2.4-2.4c0-1.3,1.1-2.4,2.4-2.4
			C382.1,267.4,383.2,268.4,383.2,269.8"/>
		<path class="st68" d="M237.7,349.9c0,1.3-1.1,2.4-2.4,2.4c-1.3,0-2.4-1.1-2.4-2.4s1.1-2.4,2.4-2.4
			C236.6,347.5,237.7,348.6,237.7,349.9"/>
		<path class="st68" d="M137.2,431.1c0,1.3-1.1,2.4-2.4,2.4c-1.3,0-2.4-1.1-2.4-2.4c0-1.3,1.1-2.4,2.4-2.4
			C136.1,428.7,137.2,429.8,137.2,431.1"/>
		<path class="st68" d="M185,287.6c0,1.3-1.1,2.4-2.4,2.4c-1.3,0-2.4-1.1-2.4-2.4c0-1.3,1.1-2.4,2.4-2.4
			C183.9,285.2,185,286.2,185,287.6"/>
		<path class="st68" d="M230.7,418.5c0,1.3-1.1,2.4-2.4,2.4c-1.3,0-2.4-1.1-2.4-2.4c0-1.3,1.1-2.4,2.4-2.4
			C229.6,416.1,230.7,417.2,230.7,418.5"/>
		<path class="st67" d="M342.9,199.4c0,1.3-1.1,2.4-2.4,2.4c-1.3,0-2.4-1.1-2.4-2.4c0-1.3,1.1-2.4,2.4-2.4
			C341.9,197,342.9,198,342.9,199.4"/>
		<path class="st67" d="M253.8,296.7c0,1.3-1.1,2.4-2.4,2.4c-1.3,0-2.4-1.1-2.4-2.4c0-1.3,1.1-2.4,2.4-2.4
			C252.7,294.3,253.8,295.3,253.8,296.7"/>
		<path class="st68" d="M217.3,240.9c0,1.3-1.1,2.4-2.4,2.4c-1.3,0-2.4-1.1-2.4-2.4c0-1.3,1.1-2.4,2.4-2.4
			C216.2,238.5,217.3,239.6,217.3,240.9"/>
		<path class="st68" d="M342.9,145c0,1.3-1.1,2.4-2.4,2.4c-1.3,0-2.4-1.1-2.4-2.4c0-1.3,1.1-2.4,2.4-2.4
			C341.9,142.6,342.9,143.7,342.9,145"/>
		<path class="st68" d="M544.6,58c0,1.3-1.1,2.4-2.4,2.4s-2.4-1.1-2.4-2.4c0-1.3,1.1-2.4,2.4-2.4S544.6,56.6,544.6,58"/>
		<path class="st68" d="M404.5,21.6c0,1.3-1.1,2.4-2.4,2.4c-1.3,0-2.4-1.1-2.4-2.4c0-1.3,1.1-2.4,2.4-2.4
			C403.5,19.2,404.5,20.2,404.5,21.6"/>
		<path class="st68" d="M300.1,47c0,1.3-1.1,2.4-2.4,2.4c-1.3,0-2.4-1.1-2.4-2.4c0-1.3,1.1-2.4,2.4-2.4
			C299,44.6,300.1,45.7,300.1,47"/>
		<path class="st67" d="M285.1,557.7c0,1.3-1.1,2.4-2.4,2.4c-1.3,0-2.4-1.1-2.4-2.4s1.1-2.4,2.4-2.4
			C284,555.3,285.1,556.4,285.1,557.7"/>
		<path class="st67" d="M484.9,282.8c0,1.3-1.1,2.4-2.4,2.4c-1.3,0-2.4-1.1-2.4-2.4c0-1.3,1.1-2.4,2.4-2.4
			C483.8,280.3,484.9,281.4,484.9,282.8"/>
		<path class="st67" d="M563,191.9c0,1.3-1.1,2.4-2.4,2.4s-2.4-1.1-2.4-2.4c0-1.3,1.1-2.4,2.4-2.4S563,190.5,563,191.9"/>
		<path class="st67" d="M565.4,410c0,1.3-1.1,2.4-2.4,2.4s-2.4-1.1-2.4-2.4c0-1.3,1.1-2.4,2.4-2.4S565.4,408.7,565.4,410"/>
		<path class="st67" d="M342.2,483.9c0,1.3-1.1,2.4-2.4,2.4c-1.3,0-2.4-1.1-2.4-2.4s1.1-2.4,2.4-2.4
			C341.1,481.5,342.2,482.5,342.2,483.9"/>
		<path class="st67" d="M555.4,463.5c0,1.3-1.1,2.4-2.4,2.4s-2.4-1.1-2.4-2.4s1.1-2.4,2.4-2.4S555.4,462.2,555.4,463.5"/>
		<path class="st67" d="M469.7,580.6c0,1.3-1.1,2.4-2.4,2.4c-1.3,0-2.4-1.1-2.4-2.4c0-1.3,1.1-2.4,2.4-2.4
			C468.7,578.2,469.7,579.3,469.7,580.6"/>
		<path class="st67" d="M652.8,403.8c0,1.3-1.1,2.4-2.4,2.4s-2.4-1.1-2.4-2.4c0-1.3,1.1-2.4,2.4-2.4S652.8,402.5,652.8,403.8"/>
		<path class="st67" d="M553,258c0,2.6-2.1,4.7-4.7,4.7c-2.6,0-4.7-2.1-4.7-4.7c0-2.6,2.1-4.7,4.7-4.7
			C550.9,253.3,553,255.4,553,258"/>
		<path class="st67" d="M421.9,318.8c0,2.6-2.1,4.7-4.7,4.7c-2.6,0-4.7-2.1-4.7-4.7c0-2.6,2.1-4.7,4.7-4.7
			C419.8,314.1,421.9,316.2,421.9,318.8"/>
		<path class="st67" d="M651.5,301.4c0,2.6-2.1,4.7-4.7,4.7c-2.6,0-4.7-2.1-4.7-4.7c0-2.6,2.1-4.7,4.7-4.7
			C649.3,296.7,651.5,298.8,651.5,301.4"/>
		<path class="st67" d="M517.4,397.6c0,2.6-2.1,4.7-4.7,4.7c-2.6,0-4.7-2.1-4.7-4.7c0-2.6,2.1-4.7,4.7-4.7
			C515.3,392.9,517.4,395,517.4,397.6"/>
		<path class="st67" d="M607.3,472.9c0,2.6-2.1,4.7-4.7,4.7c-2.6,0-4.7-2.1-4.7-4.7c0-2.6,2.1-4.7,4.7-4.7
			C605.2,468.1,607.3,470.2,607.3,472.9"/>
		<path class="st67" d="M512.4,214.9c0,2.6-2.1,4.7-4.7,4.7c-2.6,0-4.7-2.1-4.7-4.7c0-2.6,2.1-4.7,4.7-4.7
			C510.3,210.1,512.4,212.2,512.4,214.9"/>
		<path class="st67" d="M286.8,410.2c0,2-1.6,3.6-3.6,3.6c-2,0-3.6-1.6-3.6-3.6s1.6-3.6,3.6-3.6
			C285.2,406.6,286.8,408.2,286.8,410.2"/>
		<path class="st67" d="M670,154.1c0,1.7-1.4,3-3,3c-1.7,0-3-1.4-3-3c0-1.7,1.3-3,3-3C668.7,151.1,670,152.4,670,154.1"/>
		<path class="st67" d="M612.5,112.8c0,1.7-1.4,3-3,3c-1.7,0-3-1.4-3-3c0-1.7,1.3-3,3-3C611.2,109.8,612.5,111.1,612.5,112.8"/>
	</g>
</g>
</svg>
